%TF.GenerationSoftware,KiCad,Pcbnew,(5.1.10)-1*%
%TF.CreationDate,2022-05-27T15:31:46-06:00*%
%TF.ProjectId,pc-power-reset,70632d70-6f77-4657-922d-72657365742e,rev?*%
%TF.SameCoordinates,Original*%
%TF.FileFunction,Profile,NP*%
%FSLAX46Y46*%
G04 Gerber Fmt 4.6, Leading zero omitted, Abs format (unit mm)*
G04 Created by KiCad (PCBNEW (5.1.10)-1) date 2022-05-27 15:31:46*
%MOMM*%
%LPD*%
G01*
G04 APERTURE LIST*
%TA.AperFunction,Profile*%
%ADD10C,0.050000*%
%TD*%
G04 APERTURE END LIST*
D10*
X84000000Y-138500000D02*
X86500000Y-138500000D01*
X116000000Y-138500000D02*
X113500000Y-138500000D01*
X86500000Y-165000000D02*
X86500000Y-138500000D01*
X113500000Y-165000000D02*
X113500000Y-138500000D01*
X86500000Y-165000000D02*
X113500000Y-165000000D01*
X84000000Y-138500000D02*
G75*
G02*
X80000000Y-134500000I0J4000000D01*
G01*
X120000000Y-134500000D02*
G75*
G02*
X116000000Y-138500000I-4000000J0D01*
G01*
X116000000Y-61500000D02*
G75*
G02*
X120000000Y-65500000I0J-4000000D01*
G01*
X80000000Y-65500000D02*
G75*
G02*
X84000000Y-61500000I4000000J0D01*
G01*
X80000000Y-134500000D02*
X80000000Y-65500000D01*
X120000000Y-65500000D02*
X120000000Y-134500000D01*
X84000000Y-61500000D02*
X116000000Y-61500000D01*
M02*
